…
```r
dto$FRAMED$cleaned$`Flower Deafness`$`1999`
```

```
## # A tibble: 96 x 6
##    disease         region  region_desc           year sex   incase
##    <chr>           <chr>   <chr>                <int> <chr>  <int>
##  1 Flower Deafness BC      BC                    1999 F      16683
##  2 Flower Deafness HA-01   01 Interior           1999 F       2693
##  3 Flower Deafness HA-02   02 Fraser             1999 F       5945
##  4 Flower Deafness HA-03   03 Vancouver Coastal  1999 F       3847
##  5 Flower Deafness HA-04   04 Vancouver Island   1999 F       2973
##  6 Flower Deafness HA-05   05 Northern           1999 F       1159
##  7 Flower Deafness HA-99   Unknown HA            1999 F         66
##  8 Flower Deafness HSDA-11 11 East Kootenay      1999 F        268
##  9 Flower Deafness HSDA-12 12 Kootenay Boundary  1999 F        295
## 10 Flower Deafness HSDA-13 13 Okanagan           1999 F       1277
## # ... with 86 more rows
```

```r
dto$FRAMED$tuned$`Flower Deafness`$`1999`
```

```
## # A tibble: 96 x 6
##    disease         region  region_desc           year sex   incase
##    <chr>           <chr>   <chr>                <int> <chr>  <int>
##  1 Flower Deafness BC      BC                    1999 F      16683
##  2 Flower Deafness HA-01   01 Interior           1999 F       2693
##  3 Flower Deafness HA-02   02 Fraser             1999 F       5945
##  4 Flower Deafness HA-03   03 Vancouver Coastal  1999 F       3847
##  5 Flower Deafness HA-04   04 Vancouver Island   1999 F       2973
##  6 Flower Deafness HA-05   05 Northern           1999 F       1159
##  7 Flower Deafness HA-99   Unknown HA            1999 F         66
##  8 Flower Deafness HSDA-11 11 East Kootenay      1999 F        268
##  9 Flower Deafness HSDA-12 12 Kootenay Boundary  1999 F        295
## 10 Flower Deafness HSDA-13 13 Okanagan           1999 F       1277
## # ... with 86 more rows
```
…
